…
A quick check suggest we are looking at differences in reporting from
different years. The 17 samples with `HpCDD (total)` and its cousins are
all from 2010.

``` r
selected <- c('HpCDD (total)', "PCB-077 (3,3',4,4'-TeCB) (dioxin-like)")
diox_data %>%
  select(Sample_ID, Sample_Year, Method, Parameter, Result) %>%
  filter(Parameter %in% selected) %>%
  pivot_wider(c(Sample_ID, Sample_Year, Method), names_from = Parameter, values_from = Result)
```

    ## # A tibble: 79 x 5
    ##    Sample_ID Sample_Year Method `PCB-077 (3,3',4,4'-TeCB) (diox~ `HpCDD (total)`
    ##    <chr>           <dbl> <chr>                             <dbl>           <dbl>
    ##  1 1994.CS04        1994 <NA>                               9.61              NA
    ##  2 1994.EB04        1994 <NA>                              21                 NA
    ##  3 1994.EB06        1994 <NA>                              72.4               NA
    ##  4 1994.EB07        1994 <NA>                              44.2               NA
    ##  5 1994.EB09        1994 <NA>                              72.6               NA
    ##  6 1994.IB01        1994 <NA>                             108                 NA
    ##  7 1994.IB02        1994 <NA>                              98.4               NA
    ##  8 1994.IB03        1994 <NA>                              80.3               NA
    ##  9 1994.IB04        1994 <NA>                              51.9               NA
    ## 10 1994.IB06        1994 <NA>                              41.2               NA
    ## # ... with 69 more rows
…
  filter(Parameter != 'Solids (total)') %>%
  group_by(Sample_ID) %>%
  summarize(year = first(Sample_Year),
         sand = sum(grepl('Sand', Parameter) * Result),
         silt = sum((grepl('Silt', Parameter) & ! grepl('Clay', Parameter)) * 
                      Result),
         clay = sum((grepl('Clay', Parameter) & ! grepl('Silt', Parameter)) *
                      Result),
         siltclay = sum((Parameter == "Percent Silt and Clay") *
                          Result),
         test = siltclay - (silt + clay) < 0.01 | (silt == 0 & clay == 0),
         .groups = 'drop')
```

    ## # A tibble: 213 x 7
    ##    Sample_ID  year  sand  silt  clay siltclay test 
    ##    <chr>     <dbl> <dbl> <dbl> <dbl>    <dbl> <lgl>
    ##  1 1991.CS01  1991  88.1  10.7   1.2     11.9 TRUE 
    ##  2 1991.CS02  1991  87.1  10.6   2.4     13   TRUE 
    ##  3 1991.CS03  1991  84.1  13     2.9     15.9 TRUE 
    ##  4 1991.CS04  1991  29.9  32.6  37.5     70.1 TRUE 
    ##  5 1991.CS05  1991  82.4  12.7   4.9     17.6 TRUE 
    ##  6 1991.CS06  1991  65.9  21.6  12.5     34.1 TRUE 
    ##  7 1991.CS07  1991  89.5  10.2   0.3     10.5 TRUE 
    ##  8 1991.EB01  1991  34.7  26    39.4     65.4 TRUE 
    ##  9 1991.EB02  1991  33.2  29.4  37.4     66.8 TRUE 
    ## 10 1991.EB03  1991  25.1  42.1  32.8     74.9 TRUE 
    ## # ... with 203 more rows
…
phys_data %>%
  filter(Parameter != 'Organic Carbon (total)') %>%
  filter(Parameter != 'Solids (total)') %>%
  group_by(Sample_ID) %>%
  mutate(silt = sum((grepl('Silt', Parameter) & ! grepl('Clay', Parameter)) * 
                      Result),
         clay = sum((grepl('Clay', Parameter) & ! grepl('Silt', Parameter)) *
                      Result),
         test = ! (silt == 0 & clay == 0)) %>%
  ungroup() %>%
  filter( ! (Parameter == 'Percent Silt and Clay' & test)) %>%
  select(-silt, -clay, -test)
```

    ## # A tibble: 1,248 x 26
    ##    Project       Region   Location Substation Lat_N Long_W Sample_ID Sample_Year
    ##    <chr>         <chr>    <chr>    <chr>      <dbl>  <dbl> <chr>           <dbl>
    ##  1 1991-2003 Ca~ Cape Sm~ L.CS01   S.CS01      43.7  -69.9 1991.CS01        1991
    ##  2 1991-2003 Ca~ Cape Sm~ L.CS01   S.CS01      43.7  -69.9 1991.CS01        1991
    ##  3 1991-2003 Ca~ Cape Sm~ L.CS01   S.CS01      43.7  -69.9 1991.CS01        1991
    ##  4 1991-2003 Ca~ Cape Sm~ L.CS02   S.CS02      43.7  -69.9 1991.CS02        1991
    ##  5 1991-2003 Ca~ Cape Sm~ L.CS02   S.CS02      43.7  -69.9 1991.CS02        1991
    ##  6 1991-2003 Ca~ Cape Sm~ L.CS02   S.CS02      43.7  -69.9 1991.CS02        1991
    ##  7 1991-2003 Ca~ Cape Sm~ L.CS03   S.CS03      43.7  -69.9 1991.CS03        1991
    ##  8 1991-2003 Ca~ Cape Sm~ L.CS03   S.CS03      43.7  -69.9 1991.CS03        1991
    ##  9 1991-2003 Ca~ Cape Sm~ L.CS03   S.CS03      43.7  -69.9 1991.CS03        1991
    ## 10 1991-2003 Ca~ Cape Sm~ L.CS04Q  S.CS04      43.7  -69.9 1991.CS04        1991
    ## # ... with 1,238 more rows, and 18 more variables: Sample_Date <dttm>,
    ## #   Replicate <dbl>, Sample_Type <chr>, Matrix <chr>, Parameter_Group <chr>,
    ## #   Parameter <chr>, CASRN <chr>, Result <dbl>, MDL <dbl>, RL <dbl>,
    ## #   Units <chr>, Detect <chr>, Det_Flag <dbl>, Qualifier <chr>,
    ## #   QA Qualifier <chr>, Reportable_Result <chr>, Method <chr>, Era <fct>

#### Sand Totals

Here’s a quick way to find the samples from 2010 and 2011 we do NOT want
to change.

``` r
phys_data %>%
  filter(Sample_Year > 2009, grepl("NCCA", Sample_ID)) %>%
  arrange(Parameter)
```

    ## # A tibble: 21 x 26
    ##    Project         Region Location Substation Lat_N Long_W Sample_ID Sample_Year
    ##    <chr>           <chr>  <chr>    <chr>      <dbl>  <dbl> <chr>           <dbl>
    ##  1 NCCA Draft 2010 Outer~ L.1015   <NA>        43.7  -70.1 NCCA10-1~        2010
    ##  2 NCCA Draft 2010 East ~ L.1013   <NA>        43.9  -69.9 NCCA10-1~        2010
    ##  3 NCCA Draft 2010 East ~ L.1016   <NA>        43.7  -70.0 NCCA10-1~        2010
    ##  4 NCCA Draft 2010 West ~ L.1019   <NA>        43.8  -70.0 NCCA10-1~        2010
    ##  5 NCCA Draft 2010 Outer~ L.1017   <NA>        43.6  -70.2 NCCA10-1~        2010
    ##  6 NCCA Draft 2010 Inner~ L.1021   <NA>        43.7  -70.2 NCCA10-1~        2010
    ##  7 NCCA Draft 2010 Outer~ L.1022   <NA>        43.7  -70.1 NCCA10-1~        2010
    ##  8 NCCA Draft 2010 Outer~ L.1015   <NA>        43.7  -70.1 NCCA10-1~        2010
    ##  9 NCCA Draft 2010 East ~ L.1013   <NA>        43.9  -69.9 NCCA10-1~        2010
    ## 10 NCCA Draft 2010 East ~ L.1016   <NA>        43.7  -70.0 NCCA10-1~        2010
    ## # ... with 11 more rows, and 18 more variables: Sample_Date <dttm>,
    ## #   Replicate <dbl>, Sample_Type <chr>, Matrix <chr>, Parameter_Group <chr>,
    ## #   Parameter <chr>, CASRN <chr>, Result <dbl>, MDL <dbl>, RL <dbl>,
    ## #   Units <chr>, Detect <chr>, Det_Flag <dbl>, Qualifier <chr>,
    ## #   QA Qualifier <chr>, Reportable_Result <chr>, Method <chr>, Era <fct>

So we can invert that and add a filter for the parameter, and find the
data rows we want to delete.

``` r
phys_data %>%
  filter(Sample_Year > 2009,
         ! grepl("NCCA", Sample_ID),
         Parameter == 'Percent Sand')
```

    ## # A tibble: 75 x 26
    ##    Project       Region  Location Substation Lat_N Long_W Sample_ID  Sample_Year
    ##    <chr>         <chr>   <chr>    <chr>      <dbl>  <dbl> <chr>            <dbl>
    ##  1 Casco Bay Es~ Outer ~ L.OB05   S.OB05      43.7  -70.1 CBEP2010-~        2010
    ##  2 Casco Bay Es~ Cape S~ L.CS03T  S.CS03T     43.7  -69.9 CBEP2010-~        2011
    ##  3 Casco Bay Es~ Inner ~ L.IB03T  S.IB03      43.7  -70.2 CBEP2010-~        2010
    ##  4 Casco Bay Es~ West B~ L.WB03   S.WB03      43.8  -70.0 CBEP2010-~        2010
    ##  5 Casco Bay Es~ Inner ~ L.SW01T  S.SW01      43.6  -70.3 CBEP2010-~        2010
    ##  6 Casco Bay Es~ Outer ~ L.OB05   S.OB05      43.7  -70.1 CBEP2010-~        2010
    ##  7 Casco Bay Es~ West B~ L.WB04T  S.WB04      43.8  -70.0 CBEP2010-~        2011
    ##  8 Casco Bay Es~ Inner ~ L.SW02   S.SW02      43.6  -70.3 CBEP2010-~        2010
    ##  9 Casco Bay Es~ East B~ L.EB04   S.EB04      43.7  -69.9 CBEP2010-~        2011
    ## 10 Casco Bay Es~ Inner ~ L.IB02   S.IB02      43.7  -70.2 CBEP2010-~        2010
    ## # ... with 65 more rows, and 18 more variables: Sample_Date <dttm>,
    ## #   Replicate <dbl>, Sample_Type <chr>, Matrix <chr>, Parameter_Group <chr>,
    ## #   Parameter <chr>, CASRN <chr>, Result <dbl>, MDL <dbl>, RL <dbl>,
    ## #   Units <chr>, Detect <chr>, Det_Flag <dbl>, Qualifier <chr>,
    ## #   QA Qualifier <chr>, Reportable_Result <chr>, Method <chr>, Era <fct>
…
``` r
phys_data %>%
  filter(Sample_Year > 2009) %>%
  group_by(Sample_ID) %>%
  summarize(sand = sum((grepl('Sand', Parameter) & ! Parameter == 'Percent Sand') * 
                      Result),
         total = sum((Parameter == 'Percent Sand') * 
                      Result),
         test =  abs(total - sand) < 0.001,
         .groups = 'drop')
```

    ## # A tibble: 82 x 4
    ##    Sample_ID      sand total test 
    ##    <chr>         <dbl> <dbl> <lgl>
    ##  1 CBEP2010-CS01  99.2  99.2 TRUE 
    ##  2 CBEP2010-CS02  17    17   TRUE 
    ##  3 CBEP2010-CS03  97.3  97.3 TRUE 
    ##  4 CBEP2010-CS04  50.6  50.6 TRUE 
    ##  5 CBEP2010-CS05  95.6  95.6 TRUE 
    ##  6 CBEP2010-CS06  52.4  52.4 TRUE 
    ##  7 CBEP2010-CS07  89.3  89.3 TRUE 
    ##  8 CBEP2010-EB01  18.8  18.8 TRUE 
    ##  9 CBEP2010-EB02  34.6  34.6 TRUE 
    ## 10 CBEP2010-EB03  21.4  21.4 TRUE 
    ## # ... with 72 more rows
…
phys_data %>%
  filter(Parameter != 'Organic Carbon (total)') %>%
  filter(Parameter != 'Solids (total)') %>%
  group_by(Sample_ID) %>%
  summarize(year = first(Sample_Year),
         sand = sum(grepl('Sand', Parameter) * Result),
         siltclay = sum((Parameter == "Percent Silt and Clay") *
                          Result),
         gravel = sum((Parameter == 'Percent Gravel') * Result),
         total = sum((Parameter == 'Percent Total Grain Size') * Result),
         test = abs(total + gravel - 100) < 0.1,
         .groups = 'drop')
```

    ## # A tibble: 213 x 7
    ##    Sample_ID  year  sand siltclay gravel total test 
    ##    <chr>     <dbl> <dbl>    <dbl>  <dbl> <dbl> <lgl>
    ##  1 1991.CS01  1991  88.1     11.9      0     0 FALSE
    ##  2 1991.CS02  1991  87.1     13        0     0 FALSE
    ##  3 1991.CS03  1991  84.1     15.9      0     0 FALSE
    ##  4 1991.CS04  1991  29.9     70.1      0     0 FALSE
    ##  5 1991.CS05  1991  82.4     17.6      0     0 FALSE
    ##  6 1991.CS06  1991  65.9     34.1      0     0 FALSE
    ##  7 1991.CS07  1991  89.5     10.5      0     0 FALSE
    ##  8 1991.EB01  1991  34.7     65.4      0     0 FALSE
    ##  9 1991.EB02  1991  33.2     66.8      0     0 FALSE
    ## 10 1991.EB03  1991  25.1     74.9      0     0 FALSE
    ## # ... with 203 more rows
…
``` r
phys_data %>%
  group_by(Sample_ID, Replicate) %>%
  summarize(year = first(Sample_Year),
         total = sum(grepl('Percent Total Grain Size', Parameter) * Result),
         total2 = sum(Result) - 
           sum((Parameter == 'Percent Gravel') * Result ) -
           sum((Parameter == 'Percent Silt') * Result ) -
           sum((Parameter == 'Percent Clay') * Result ),
         gravel = sum((Parameter == 'Percent Gravel') * Result),
         .groups = 'drop')
```

    ## # A tibble: 215 x 6
    ##    Sample_ID Replicate  year total total2 gravel
    ##    <chr>         <dbl> <dbl> <dbl>  <dbl>  <dbl>
    ##  1 1991.CS01         0  1991     0   100.      0
    ##  2 1991.CS02         0  1991     0   100.      0
    ##  3 1991.CS03         0  1991     0   100.      0
    ##  4 1991.CS04         0  1991     0   103.      0
    ##  5 1991.CS05         0  1991     0   100.      0
    ##  6 1991.CS06         0  1991     0   101.      0
    ##  7 1991.CS07         0  1991     0   100.      0
    ##  8 1991.EB01         0  1991     0   102.      0
    ##  9 1991.EB02         0  1991     0   102.      0
    ## 10 1991.EB03         0  1991     0   102.      0
    ## # ... with 205 more rows
…
